[
    {
        "name": "12",
        "day": "12",
        "month": "Febrero",
        "relevance": "(2) Trabajo simple evaluado"
    },
    {
        "name": "as",
        "day": "21",
        "month": "Marzo",
        "relevance": "(5) Evaluacion parcial (Ej. Proyecto)"
    },
    {
        "name": "Seminario Biologia",
        "day": "20",
        "month": "Diciembre",
        "relevance": "(5) Evaluacion parcial (Ej. Proyecto)"
    },
    {
        "name": "Proyecto progra",
        "day": "19",
        "month": "Diciembre",
        "relevance": "(5) Evaluacion parcial (Ej. Proyecto)"
    },
    {
        "name": "Control Calculo",
        "day": "19",
        "month": "Diciembre",
        "relevance": "(3) Taller mediano"
    },
    {
        "name": "Proyecto Programacion",
        "day": "19",
        "month": "Diciembre",
        "relevance": "(5) Evaluacion parcial (Ej. Proyecto)"
    }
]