{
    "80101112101": [
        {
            "matrix": [
                [
                    1,
                    1,
                    1,
                    1,
                    1,
                    2,
                    1,
                    1,
                    1,
                    1,
                    1,
                    1,
                    1,
                    1,
                    1,
                    2,
                    1,
                    1,
                    1,
                    1,
                    1,
                    1,
                    1,
                    3,
                    1,
                    2,
                    2
                ],
                [
                    2,
                    2,
                    2,
                    2,
                    1,
                    2,
                    2,
                    2,
                    1,
                    2,
                    2,
                    2,
                    2,
                    2,
                    1,
                    2,
                    1,
                    2,
                    2,
                    2,
                    1,
                    2,
                    1,
                    2,
                    1,
                    2,
                    2
                ],
                [
                    1,
                    1,
                    1,
                    2,
                    1,
                    1,
                    1,
                    2,
                    1,
                    2,
                    1,
                    1,
                    1,
                    2,
                    1,
                    2,
                    1,
                    2,
                    1,
                    2,
                    1,
                    3,
                    1,
                    1,
                    1,
                    2,
                    2
                ],
                [
                    1,
                    2,
                    1,
                    2,
                    2,
                    2,
                    1,
                    2,
                    1,
                    2,
                    1,
                    2,
                    2,
                    2,
                    1,
                    2,
                    1,
                    2,
                    1,
                    2,
                    1,
                    2,
                    2,
                    2,
                    1,
                    2,
                    2
                ],
                [
                    1,
                    2,
                    1,
                    1,
                    1,
                    2,
                    1,
                    1,
                    1,
                    2,
                    1,
                    2,
                    1,
                    1,
                    1,
                    2,
                    1,
                    2,
                    1,
                    2,
                    1,
                    1,
                    1,
                    3,
                    1,
                    2,
                    2
                ],
                [
                    1,
                    2,
                    2,
                    2,
                    1,
                    2,
                    2,
                    2,
                    2,
                    2,
                    1,
                    2,
                    1,
                    2,
                    2,
                    2,
                    1,
                    2,
                    1,
                    2,
                    2,
                    2,
                    1,
                    2,
                    1,
                    2,
                    2
                ],
                [
                    1,
                    1,
                    1,
                    2,
                    1,
                    1,
                    1,
                    1,
                    1,
                    2,
                    1,
                    1,
                    1,
                    2,
                    1,
                    2,
                    1,
                    2,
                    1,
                    2,
                    1,
                    1,
                    1,
                    3,
                    1,
                    2,
                    2
                ],
                [
                    2,
                    2,
                    1,
                    2,
                    1,
                    2,
                    2,
                    2,
                    2,
                    2,
                    1,
                    2,
                    2,
                    2,
                    1,
                    2,
                    1,
                    2,
                    1,
                    2,
                    1,
                    2,
                    2,
                    2,
                    2,
                    2,
                    2
                ],
                [
                    1,
                    2,
                    1,
                    2,
                    1,
                    2,
                    1,
                    1,
                    1,
                    2,
                    1,
                    2,
                    1,
                    1,
                    1,
                    2,
                    1,
                    1,
                    1,
                    2,
                    1,
                    1,
                    1,
                    1,
                    1,
                    2,
                    2
                ],
                [
                    1,
                    2,
                    1,
                    2,
                    1,
                    2,
                    1,
                    2,
                    1,
                    2,
                    1,
                    2,
                    1,
                    2,
                    1,
                    2,
                    2,
                    2,
                    1,
                    2,
                    2,
                    2,
                    2,
                    2,
                    1,
                    2,
                    2
                ],
                [
                    1,
                    2,
                    1,
                    2,
                    1,
                    1,
                    1,
                    2,
                    1,
                    1,
                    1,
                    2,
                    1,
                    2,
                    1,
                    1,
                    1,
                    1,
                    1,
                    1,
                    1,
                    1,
                    1,
                    3,
                    1,
                    2,
                    2
                ],
                [
                    1,
                    2,
                    1,
                    2,
                    2,
                    2,
                    2,
                    2,
                    2,
                    2,
                    2,
                    2,
                    1,
                    2,
                    2,
                    2,
                    2,
                    2,
                    2,
                    2,
                    2,
                    2,
                    1,
                    2,
                    1,
                    2,
                    2
                ],
                [
                    1,
                    1,
                    1,
                    2,
                    1,
                    1,
                    1,
                    2,
                    1,
                    1,
                    1,
                    1,
                    1,
                    2,
                    1,
                    1,
                    1,
                    2,
                    1,
                    1,
                    1,
                    1,
                    1,
                    3,
                    1,
                    2,
                    2
                ],
                [
                    1,
                    2,
                    2,
                    2,
                    1,
                    2,
                    1,
                    2,
                    1,
                    2,
                    2,
                    2,
                    2,
                    2,
                    1,
                    2,
                    1,
                    2,
                    1,
                    2,
                    2,
                    2,
                    2,
                    2,
                    1,
                    2,
                    2
                ],
                [
                    1,
                    2,
                    1,
                    1,
                    1,
                    2,
                    1,
                    2,
                    1,
                    1,
                    1,
                    2,
                    1,
                    1,
                    1,
                    2,
                    1,
                    2,
                    1,
                    1,
                    1,
                    1,
                    1,
                    3,
                    1,
                    2,
                    2
                ],
                [
                    1,
                    2,
                    1,
                    2,
                    2,
                    2,
                    1,
                    2,
                    2,
                    2,
                    2,
                    2,
                    1,
                    2,
                    2,
                    2,
                    1,
                    2,
                    2,
                    2,
                    2,
                    2,
                    1,
                    2,
                    1,
                    2,
                    2
                ],
                [
                    1,
                    1,
                    1,
                    2,
                    1,
                    1,
                    1,
                    2,
                    1,
                    1,
                    1,
                    1,
                    1,
                    2,
                    1,
                    1,
                    1,
                    2,
                    1,
                    2,
                    1,
                    1,
                    1,
                    2,
                    1,
                    2,
                    2
                ],
                [
                    2,
                    2,
                    2,
                    2,
                    1,
                    2,
                    2,
                    2,
                    1,
                    2,
                    2,
                    2,
                    2,
                    2,
                    2,
                    2,
                    1,
                    2,
                    1,
                    2,
                    1,
                    2,
                    2,
                    2,
                    1,
                    2,
                    2
                ],
                [
                    1,
                    1,
                    1,
                    2,
                    1,
                    2,
                    1,
                    1,
                    1,
                    1,
                    1,
                    1,
                    1,
                    1,
                    1,
                    2,
                    1,
                    2,
                    1,
                    1,
                    1,
                    2,
                    1,
                    1,
                    1,
                    2,
                    2
                ],
                [
                    1,
                    2,
                    1,
                    2,
                    1,
                    2,
                    1,
                    2,
                    2,
                    2,
                    2,
                    2,
                    2,
                    2,
                    1,
                    2,
                    1,
                    2,
                    2,
                    2,
                    3,
                    2,
                    1,
                    2,
                    3,
                    2,
                    2
                ],
                [
                    1,
                    2,
                    1,
                    2,
                    1,
                    2,
                    1,
                    1,
                    1,
                    1,
                    1,
                    2,
                    1,
                    1,
                    1,
                    2,
                    1,
                    1,
                    1,
                    1,
                    1,
                    3,
                    1,
                    1,
                    1,
                    2,
                    2
                ],
                [
                    1,
                    2,
                    1,
                    2,
                    1,
                    2,
                    2,
                    2,
                    2,
                    2,
                    2,
                    2,
                    1,
                    2,
                    2,
                    2,
                    2,
                    2,
                    2,
                    2,
                    1,
                    2,
                    3,
                    2,
                    1,
                    2,
                    2
                ],
                [
                    1,
                    2,
                    1,
                    1,
                    1,
                    2,
                    1,
                    1,
                    1,
                    1,
                    1,
                    2,
                    1,
                    2,
                    1,
                    1,
                    1,
                    1,
                    1,
                    2,
                    1,
                    1,
                    1,
                    1,
                    1,
                    2,
                    2
                ],
                [
                    1,
                    2,
                    2,
                    2,
                    2,
                    2,
                    1,
                    2,
                    2,
                    2,
                    1,
                    2,
                    1,
                    2,
                    1,
                    2,
                    1,
                    2,
                    2,
                    2,
                    2,
                    2,
                    3,
                    2,
                    1,
                    2,
                    2
                ],
                [
                    1,
                    1,
                    1,
                    1,
                    1,
                    1,
                    1,
                    2,
                    1,
                    1,
                    1,
                    1,
                    1,
                    2,
                    1,
                    2,
                    1,
                    1,
                    1,
                    1,
                    1,
                    1,
                    1,
                    1,
                    1,
                    2,
                    2
                ],
                [
                    2,
                    2,
                    2,
                    2,
                    2,
                    2,
                    2,
                    2,
                    2,
                    2,
                    2,
                    2,
                    2,
                    2,
                    2,
                    2,
                    2,
                    2,
                    2,
                    2,
                    2,
                    2,
                    2,
                    2,
                    2,
                    2,
                    2
                ],
                [
                    2,
                    2,
                    2,
                    2,
                    2,
                    2,
                    2,
                    2,
                    2,
                    2,
                    2,
                    2,
                    2,
                    2,
                    2,
                    2,
                    2,
                    2,
                    2,
                    2,
                    2,
                    2,
                    2,
                    2,
                    2,
                    2,
                    2
                ]
            ],
            "exit": [
                300,
                -250
            ]
        }
    ],
    "104111111108105": [
        {
            "matrix": [
                [
                    1,
                    1,
                    1,
                    1,
                    1,
                    1,
                    1,
                    2,
                    1,
                    1,
                    1,
                    2,
                    1,
                    1,
                    1,
                    1,
                    1,
                    2,
                    1,
                    1,
                    1,
                    1,
                    1,
                    3,
                    1,
                    2,
                    2
                ],
                [
                    2,
                    2,
                    2,
                    2,
                    2,
                    2,
                    1,
                    2,
                    1,
                    2,
                    1,
                    2,
                    1,
                    2,
                    2,
                    2,
                    1,
                    2,
                    2,
                    2,
                    1,
                    2,
                    1,
                    2,
                    1,
                    2,
                    2
                ],
                [
                    1,
                    1,
                    1,
                    1,
                    1,
                    2,
                    1,
                    1,
                    1,
                    2,
                    1,
                    1,
                    1,
                    2,
                    1,
                    2,
                    1,
                    2,
                    1,
                    1,
                    1,
                    3,
                    1,
                    1,
                    1,
                    2,
                    2
                ],
                [
                    1,
                    2,
                    2,
                    2,
                    2,
                    2,
                    2,
                    2,
                    2,
                    2,
                    2,
                    2,
                    2,
                    2,
                    1,
                    2,
                    1,
                    2,
                    1,
                    2,
                    2,
                    2,
                    2,
                    2,
                    2,
                    2,
                    2
                ],
                [
                    1,
                    2,
                    1,
                    1,
                    1,
                    1,
                    1,
                    1,
                    1,
                    2,
                    1,
                    1,
                    1,
                    1,
                    1,
                    2,
                    1,
                    2,
                    1,
                    1,
                    1,
                    1,
                    1,
                    1,
                    1,
                    2,
                    2
                ],
                [
                    1,
                    2,
                    1,
                    2,
                    2,
                    2,
                    1,
                    2,
                    1,
                    2,
                    2,
                    2,
                    1,
                    2,
                    2,
                    2,
                    1,
                    2,
                    1,
                    2,
                    2,
                    2,
                    2,
                    2,
                    1,
                    2,
                    2
                ],
                [
                    1,
                    1,
                    1,
                    2,
                    1,
                    1,
                    1,
                    2,
                    1,
                    1,
                    1,
                    1,
                    1,
                    2,
                    1,
                    1,
                    1,
                    2,
                    1,
                    2,
                    1,
                    1,
                    1,
                    1,
                    1,
                    2,
                    2
                ],
                [
                    1,
                    2,
                    2,
                    2,
                    1,
                    2,
                    2,
                    2,
                    2,
                    2,
                    2,
                    2,
                    1,
                    2,
                    1,
                    2,
                    2,
                    2,
                    2,
                    2,
                    1,
                    2,
                    2,
                    2,
                    1,
                    2,
                    2
                ],
                [
                    1,
                    2,
                    1,
                    1,
                    1,
                    2,
                    1,
                    1,
                    1,
                    2,
                    1,
                    1,
                    1,
                    2,
                    1,
                    1,
                    1,
                    1,
                    1,
                    2,
                    1,
                    3,
                    1,
                    3,
                    1,
                    2,
                    2
                ],
                [
                    1,
                    2,
                    1,
                    2,
                    2,
                    2,
                    1,
                    2,
                    1,
                    2,
                    1,
                    2,
                    2,
                    2,
                    2,
                    2,
                    2,
                    2,
                    1,
                    2,
                    1,
                    2,
                    1,
                    2,
                    1,
                    2,
                    2
                ],
                [
                    1,
                    2,
                    1,
                    1,
                    1,
                    1,
                    1,
                    2,
                    1,
                    2,
                    1,
                    1,
                    1,
                    1,
                    1,
                    1,
                    1,
                    2,
                    1,
                    1,
                    1,
                    3,
                    1,
                    3,
                    1,
                    2,
                    2
                ],
                [
                    1,
                    2,
                    2,
                    2,
                    2,
                    2,
                    2,
                    2,
                    1,
                    2,
                    2,
                    2,
                    2,
                    2,
                    1,
                    2,
                    2,
                    2,
                    2,
                    2,
                    2,
                    2,
                    1,
                    2,
                    1,
                    2,
                    2
                ],
                [
                    1,
                    2,
                    1,
                    1,
                    1,
                    1,
                    1,
                    2,
                    1,
                    2,
                    1,
                    1,
                    1,
                    1,
                    1,
                    2,
                    1,
                    1,
                    1,
                    1,
                    1,
                    3,
                    1,
                    1,
                    1,
                    2,
                    2
                ],
                [
                    1,
                    2,
                    2,
                    2,
                    2,
                    2,
                    1,
                    2,
                    1,
                    2,
                    2,
                    2,
                    2,
                    2,
                    1,
                    2,
                    1,
                    2,
                    1,
                    2,
                    2,
                    2,
                    1,
                    2,
                    2,
                    2,
                    2
                ],
                [
                    1,
                    1,
                    1,
                    1,
                    1,
                    1,
                    1,
                    2,
                    1,
                    1,
                    1,
                    1,
                    1,
                    2,
                    1,
                    2,
                    1,
                    2,
                    1,
                    1,
                    1,
                    3,
                    1,
                    3,
                    1,
                    2,
                    2
                ],
                [
                    2,
                    2,
                    2,
                    2,
                    2,
                    2,
                    1,
                    2,
                    2,
                    2,
                    2,
                    2,
                    1,
                    2,
                    2,
                    2,
                    1,
                    2,
                    2,
                    2,
                    1,
                    2,
                    1,
                    2,
                    1,
                    2,
                    2
                ],
                [
                    1,
                    2,
                    1,
                    1,
                    1,
                    1,
                    1,
                    2,
                    1,
                    1,
                    1,
                    2,
                    1,
                    1,
                    1,
                    1,
                    1,
                    2,
                    1,
                    2,
                    1,
                    1,
                    1,
                    2,
                    1,
                    2,
                    2
                ],
                [
                    1,
                    2,
                    1,
                    2,
                    2,
                    2,
                    2,
                    2,
                    1,
                    2,
                    1,
                    2,
                    2,
                    2,
                    2,
                    2,
                    2,
                    2,
                    1,
                    2,
                    2,
                    2,
                    2,
                    2,
                    1,
                    2,
                    2
                ],
                [
                    1,
                    2,
                    1,
                    1,
                    1,
                    1,
                    1,
                    1,
                    1,
                    2,
                    1,
                    1,
                    1,
                    2,
                    1,
                    1,
                    1,
                    1,
                    1,
                    1,
                    1,
                    1,
                    1,
                    1,
                    1,
                    2,
                    2
                ],
                [
                    1,
                    2,
                    2,
                    2,
                    2,
                    2,
                    2,
                    2,
                    2,
                    2,
                    2,
                    2,
                    1,
                    2,
                    1,
                    2,
                    2,
                    2,
                    2,
                    2,
                    3,
                    2,
                    3,
                    2,
                    1,
                    2,
                    2
                ],
                [
                    1,
                    1,
                    1,
                    2,
                    1,
                    1,
                    1,
                    1,
                    1,
                    1,
                    1,
                    1,
                    1,
                    2,
                    1,
                    2,
                    1,
                    1,
                    1,
                    1,
                    1,
                    1,
                    1,
                    3,
                    1,
                    2,
                    2
                ],
                [
                    1,
                    2,
                    1,
                    2,
                    1,
                    2,
                    2,
                    2,
                    2,
                    2,
                    2,
                    2,
                    2,
                    2,
                    1,
                    2,
                    1,
                    2,
                    2,
                    2,
                    2,
                    2,
                    1,
                    2,
                    1,
                    2,
                    2
                ],
                [
                    1,
                    2,
                    1,
                    2,
                    1,
                    2,
                    1,
                    1,
                    1,
                    1,
                    1,
                    1,
                    1,
                    1,
                    1,
                    2,
                    1,
                    2,
                    1,
                    1,
                    1,
                    1,
                    1,
                    2,
                    1,
                    2,
                    2
                ],
                [
                    1,
                    2,
                    2,
                    2,
                    1,
                    2,
                    2,
                    2,
                    2,
                    2,
                    2,
                    2,
                    1,
                    2,
                    2,
                    2,
                    1,
                    2,
                    1,
                    2,
                    2,
                    2,
                    3,
                    2,
                    1,
                    2,
                    2
                ],
                [
                    1,
                    1,
                    1,
                    1,
                    1,
                    1,
                    1,
                    1,
                    1,
                    1,
                    1,
                    1,
                    1,
                    2,
                    1,
                    1,
                    1,
                    2,
                    1,
                    1,
                    1,
                    1,
                    1,
                    1,
                    1,
                    2,
                    2
                ],
                [
                    2,
                    2,
                    2,
                    2,
                    2,
                    2,
                    2,
                    2,
                    2,
                    2,
                    2,
                    2,
                    2,
                    2,
                    2,
                    2,
                    2,
                    2,
                    2,
                    2,
                    2,
                    2,
                    2,
                    2,
                    2,
                    2,
                    2
                ],
                [
                    2,
                    2,
                    2,
                    2,
                    2,
                    2,
                    2,
                    2,
                    2,
                    2,
                    2,
                    2,
                    2,
                    2,
                    2,
                    2,
                    2,
                    2,
                    2,
                    2,
                    2,
                    2,
                    2,
                    2,
                    2,
                    2,
                    2
                ]
            ],
            "exit": [
                300,
                200
            ]
        }
    ]
}