{
    "Org\u00e1nico": [
        [
            "Etanol",
            "C2H8O"
        ],
        [
            "Metano",
            "CH4"
        ],
        [
            "Etenol",
            "C2H4"
        ],
        [
            "Ebryan",
            "Etanol"
        ]
    ],
    "Inorg\u00e1nico": [
        [
            "Yodo",
            "I2"
        ],
        [
            "Oxigeno Molecular",
            "O2"
        ],
        [
            "Acido Clorh\u00eddrico",
            "HCl"
        ]
    ]
}